quarto-input664b0d661468afd7 – Climate forest regeneration
…
# Realizar o teste de normalidade Shapiro-Wilk 
shapiro_test_results_prec <- all_pf_sf_prec %>%
  group_by(Tipo, region, ff_area) %>%
  summarise(
    p_value = shapiro.test(Prec)$p.value
  ) %>%
  ungroup()

`summarise()` has grouped output by 'Tipo', 'region'. You can override using
the `.groups` argument.

# Visualizar os resultados do teste Shapiro-Wilk
print(shapiro_test_results_prec)

# A tibble: 120 × 4
   Tipo  region ff_area p_value
   <chr> <chr>  <chr>     <dbl>
 1 PF    CBA    1-10      0.297
 2 PF    CBA    10-20     0.279
 3 PF    CBA    20-30     0.274
 4 PF    CBA    30-40     0.261
 5 PF    CBA    40-50     0.261
 6 PF    CBA    50-60     0.277
 7 PF    CBA    60-70     0.264
 8 PF    CBA    70-80     0.269
 9 PF    CBA    80-90     0.276
10 PF    CBA    90-100    0.369
# ℹ 110 more rows
…
# Realizar o teste de normalidade Shapiro-Wilk 
shapiro_test_results_evapo <- all_pf_sf_evapo %>%
  group_by(Tipo,region, ff_area) %>%
  summarise(
    p_value = shapiro.test(Evapo)$p.value
  ) %>%
  ungroup()

`summarise()` has grouped output by 'Tipo', 'region'. You can override using
the `.groups` argument.

# Visualizar os resultados do teste Shapiro-Wilk
print(shapiro_test_results_evapo)

# A tibble: 120 × 4
   Tipo  region ff_area p_value
   <chr> <chr>  <chr>     <dbl>
 1 PF    CBA    1-10     0.0470
 2 PF    CBA    10-20    0.0671
 3 PF    CBA    20-30    0.370 
 4 PF    CBA    30-40    0.532 
 5 PF    CBA    40-50    0.615 
 6 PF    CBA    50-60    0.620 
 7 PF    CBA    60-70    0.580 
 8 PF    CBA    70-80    0.520 
 9 PF    CBA    80-90    0.512 
10 PF    CBA    90-100   0.687 
# ℹ 110 more rows
…
# Realizar o teste de normalidade Shapiro-Wilk 
shapiro_test_results_temp <- all_pf_sf_temp %>%
  group_by(Tipo,region, ff_area) %>%
  summarise(
    p_value = shapiro.test(Temp)$p.value
  ) %>%
  ungroup()

`summarise()` has grouped output by 'Tipo', 'region'. You can override using
the `.groups` argument.

# Visualizar os resultados do teste Shapiro-Wilk
print(shapiro_test_results_temp)

# A tibble: 120 × 4
   Tipo  region ff_area p_value
   <chr> <chr>  <chr>     <dbl>
 1 PF    CBA    1-10      0.145
 2 PF    CBA    10-20     0.140
 3 PF    CBA    20-30     0.157
 4 PF    CBA    30-40     0.179
 5 PF    CBA    40-50     0.199
 6 PF    CBA    50-60     0.218
 7 PF    CBA    60-70     0.236
 8 PF    CBA    70-80     0.241
 9 PF    CBA    80-90     0.244
10 PF    CBA    90-100    0.298
# ℹ 110 more rows
…
model_cba_all_prec[model_cba_all_prec$type== 1,
                     c("vegetation")]<-"PF"
model_cba_all_prec[model_cba_all_prec$type== 2,
                     c("vegetation")]<-"SF_beginning"
model_cba_all_prec[model_cba_all_prec$type== 3,
                     c("vegetation")]<-"SF_intermediate"
model_cba_all_prec[model_cba_all_prec$type== 4,
                     c("vegetation")]<-"SF_advanced"

model_cba_all_prec

# A tibble: 762 × 11
     Ano Tipo  region ff_area idade  Prec  n_obs type  predicted  area
   <dbl> <chr> <chr>  <chr>   <chr> <dbl>  <dbl> <fct>     <dbl> <dbl>
 1  2001 PF    CBA    1-10    <NA>  2174.  34140 1         2190.     1
 2  2001 PF    CBA    10-20   <NA>  2221.  20329 1         2229.     2
 3  2001 PF    CBA    20-30   <NA>  2254.  17976 1         2253.     3
 4  2001 PF    CBA    30-40   <NA>  2277.  18084 1         2268.     4
 5  2001 PF    CBA    40-50   <NA>  2289.  20143 1         2275.     5
 6  2001 PF    CBA    50-60   <NA>  2293.  23549 1         2277.     6
 7  2001 PF    CBA    60-70   <NA>  2305.  27195 1         2284.     7
 8  2001 PF    CBA    70-80   <NA>  2312.  33532 1         2291.     8
 9  2001 PF    CBA    80-90   <NA>  2316.  45363 1         2294.     9
10  2001 PF    CBA    90-100  <NA>  2285. 779283 1         2251.    10
# ℹ 752 more rows
# ℹ 1 more variable: vegetation <chr>
…
model_eba_all_prec[model_eba_all_prec$type== 1,
                     c("vegetation")]<-"PF"
model_eba_all_prec[model_eba_all_prec$type== 2,
                     c("vegetation")]<-"SF_beginning"
model_eba_all_prec[model_eba_all_prec$type== 3,
                     c("vegetation")]<-"SF_intermediate"
model_eba_all_prec[model_eba_all_prec$type== 4,
                     c("vegetation")]<-"SF_advanced"

model_eba_all_prec

# A tibble: 770 × 11
     Ano Tipo  region ff_area idade  Prec  n_obs type  predicted  area
   <dbl> <chr> <chr>  <chr>   <chr> <dbl>  <dbl> <fct>     <dbl> <dbl>
 1  2001 PF    EBA    1-10    <NA>  2456.  28614 1         2470.     1
 2  2001 PF    EBA    10-20   <NA>  2395.  19337 1         2436.     2
 3  2001 PF    EBA    20-30   <NA>  2364.  17933 1         2416.     3
 4  2001 PF    EBA    30-40   <NA>  2331.  18998 1         2385.     4
 5  2001 PF    EBA    40-50   <NA>  2289.  22451 1         2347.     5
 6  2001 PF    EBA    50-60   <NA>  2261.  27278 1         2319.     6
 7  2001 PF    EBA    60-70   <NA>  2274.  28701 1         2333.     7
 8  2001 PF    EBA    70-80   <NA>  2277.  31947 1         2343.     8
 9  2001 PF    EBA    80-90   <NA>  2293.  41186 1         2359.     9
10  2001 PF    EBA    90-100  <NA>  2107. 452193 1         2257.    10
# ℹ 760 more rows
# ℹ 1 more variable: vegetation <chr>
…
model_cba_all_evapo[model_cba_all_evapo$type== 1,
                     c("vegetation")]<-"PF"
model_cba_all_evapo[model_cba_all_evapo$type== 2,
                     c("vegetation")]<-"SF_beginning"
model_cba_all_evapo[model_cba_all_evapo$type== 3,
                     c("vegetation")]<-"SF_intermediate"
model_cba_all_evapo[model_cba_all_evapo$type== 4,
                     c("vegetation")]<-"SF_advanced"

model_cba_all_evapo

# A tibble: 762 × 11
     Ano Tipo  region ff_area idade Evapo  n_obs type  predicted  area
   <dbl> <chr> <chr>  <chr>   <chr> <dbl>  <dbl> <fct>     <dbl> <dbl>
 1  2001 PF    CBA    1-10    <NA>  1370.  27760 1         1381.     1
 2  2001 PF    CBA    10-20   <NA>  1439.  17635 1         1438.     2
 3  2001 PF    CBA    20-30   <NA>  1481.  16201 1         1468.     3
 4  2001 PF    CBA    30-40   <NA>  1509.  16743 1         1488.     4
 5  2001 PF    CBA    40-50   <NA>  1523.  19083 1         1499.     5
 6  2001 PF    CBA    50-60   <NA>  1536.  22596 1         1507.     6
 7  2001 PF    CBA    60-70   <NA>  1547.  26448 1         1513.     7
 8  2001 PF    CBA    70-80   <NA>  1555.  32912 1         1517.     8
 9  2001 PF    CBA    80-90   <NA>  1562.  44871 1         1521.     9
10  2001 PF    CBA    90-100  <NA>  1573. 778619 1         1539.    10
# ℹ 752 more rows
# ℹ 1 more variable: vegetation <chr>
…
model_eba_all_evapo[model_eba_all_evapo$type== 1,
                     c("vegetation")]<-"PF"
model_eba_all_evapo[model_eba_all_evapo$type== 2,
                     c("vegetation")]<-"SF_beginning"
model_eba_all_evapo[model_eba_all_evapo$type== 3,
                     c("vegetation")]<-"SF_intermediate"
model_eba_all_evapo[model_eba_all_evapo$type== 4,
                     c("vegetation")]<-"SF_advanced"

model_eba_all_evapo

# A tibble: 770 × 11
     Ano Tipo  region ff_area idade Evapo  n_obs type  predicted  area
   <dbl> <chr> <chr>  <chr>   <chr> <dbl>  <dbl> <fct>     <dbl> <dbl>
 1  2001 PF    EBA    1-10    <NA>  1413.  21270 1         1432.     1
 2  2001 PF    EBA    10-20   <NA>  1453.  15527 1         1469.     2
 3  2001 PF    EBA    20-30   <NA>  1477.  15274 1         1488.     3
 4  2001 PF    EBA    30-40   <NA>  1492.  16874 1         1497.     4
 5  2001 PF    EBA    40-50   <NA>  1503.  20651 1         1499.     5
 6  2001 PF    EBA    50-60   <NA>  1510.  25748 1         1497.     6
 7  2001 PF    EBA    60-70   <NA>  1522.  27349 1         1502.     7
 8  2001 PF    EBA    70-80   <NA>  1530.  30766 1         1504.     8
 9  2001 PF    EBA    80-90   <NA>  1534.  39961 1         1505.     9
10  2001 PF    EBA    90-100  <NA>  1542. 450275 1         1508.    10
# ℹ 760 more rows
# ℹ 1 more variable: vegetation <chr>
…
model_sba_all_evapo[model_sba_all_evapo$type== 1,
                     c("vegetation")]<-"PF"
model_sba_all_evapo[model_sba_all_evapo$type== 2,
                     c("vegetation")]<-"SF_beginning"
model_sba_all_evapo[model_sba_all_evapo$type== 3,
                     c("vegetation")]<-"SF_intermediate"
model_sba_all_evapo[model_sba_all_evapo$type== 4,
                     c("vegetation")]<-"SF_advanced"

model_sba_all_evapo

# A tibble: 770 × 11
     Ano Tipo  region ff_area idade Evapo  n_obs type  predicted  area
   <dbl> <chr> <chr>  <chr>   <chr> <dbl>  <dbl> <fct>     <dbl> <dbl>
 1  2001 PF    SBA    1-10    <NA>  1137.  24433 1         1184.     1
 2  2001 PF    SBA    10-20   <NA>  1216.  18391 1         1231.     2
 3  2001 PF    SBA    20-30   <NA>  1268.  17272 1         1260.     3
 4  2001 PF    SBA    30-40   <NA>  1308.  18934 1         1281.     4
 5  2001 PF    SBA    40-50   <NA>  1317.  25235 1         1287.     5
 6  2001 PF    SBA    50-60   <NA>  1331.  38691 1         1291.     6
 7  2001 PF    SBA    60-70   <NA>  1367.  41811 1         1306.     7
 8  2001 PF    SBA    70-80   <NA>  1395.  48986 1         1317.     8
 9  2001 PF    SBA    80-90   <NA>  1423.  65815 1         1326.     9
10  2001 PF    SBA    90-100  <NA>  1484. 969357 1         1342.    10
# ℹ 760 more rows
# ℹ 1 more variable: vegetation <chr>
…
model_cba_all_temp[model_cba_all_temp$type== 1,
                     c("vegetation")]<-"PF"
model_cba_all_temp[model_cba_all_temp$type== 2,
                     c("vegetation")]<-"SF_beginning"
model_cba_all_temp[model_cba_all_temp$type== 3,
                     c("vegetation")]<-"SF_intermediate"
model_cba_all_temp[model_cba_all_temp$type== 4,
                     c("vegetation")]<-"SF_advanced"

model_cba_all_temp

# A tibble: 762 × 11
     Ano Tipo  region ff_area idade  Temp  n_obs type  predicted  area
   <dbl> <chr> <chr>  <chr>   <chr> <dbl>  <dbl> <fct>     <dbl> <dbl>
 1  2001 PF    CBA    1-10    <NA>   26.0  34140 1          25.9     1
 2  2001 PF    CBA    10-20   <NA>   25.8  20329 1          25.6     2
 3  2001 PF    CBA    20-30   <NA>   25.6  17976 1          25.5     3
 4  2001 PF    CBA    30-40   <NA>   25.5  18084 1          25.4     4
 5  2001 PF    CBA    40-50   <NA>   25.4  20143 1          25.3     5
 6  2001 PF    CBA    50-60   <NA>   25.3  23549 1          25.3     6
 7  2001 PF    CBA    60-70   <NA>   25.3  27195 1          25.2     7
 8  2001 PF    CBA    70-80   <NA>   25.2  33532 1          25.1     8
 9  2001 PF    CBA    80-90   <NA>   25.1  45363 1          25.1     9
10  2001 PF    CBA    90-100  <NA>   24.7 779283 1          24.7    10
# ℹ 752 more rows
# ℹ 1 more variable: vegetation <chr>
…
model_eba_all_temp[model_eba_all_temp$type== 1,
                     c("vegetation")]<-"PF"
model_eba_all_temp[model_eba_all_temp$type== 2,
                     c("vegetation")]<-"SF_beginning"
model_eba_all_temp[model_eba_all_temp$type== 3,
                     c("vegetation")]<-"SF_intermediate"
model_eba_all_temp[model_eba_all_temp$type== 4,
                     c("vegetation")]<-"SF_advanced"

model_eba_all_temp

# A tibble: 770 × 11
     Ano Tipo  region ff_area idade  Temp  n_obs type  predicted  area
   <dbl> <chr> <chr>  <chr>   <chr> <dbl>  <dbl> <fct>     <dbl> <dbl>
 1  2001 PF    EBA    1-10    <NA>   25.3  28614 1          25.2     1
 2  2001 PF    EBA    10-20   <NA>   25.1  19337 1          25.0     2
 3  2001 PF    EBA    20-30   <NA>   25.0  17933 1          24.9     3
 4  2001 PF    EBA    30-40   <NA>   25.0  18998 1          24.9     4
 5  2001 PF    EBA    40-50   <NA>   24.9  22451 1          24.9     5
 6  2001 PF    EBA    50-60   <NA>   24.9  27278 1          24.8     6
 7  2001 PF    EBA    60-70   <NA>   24.8  28701 1          24.7     7
 8  2001 PF    EBA    70-80   <NA>   24.7  31947 1          24.6     8
 9  2001 PF    EBA    80-90   <NA>   24.6  41186 1          24.5     9
10  2001 PF    EBA    90-100  <NA>   24.2 452193 1          24.0    10
# ℹ 760 more rows
# ℹ 1 more variable: vegetation <chr>
…
model_sba_all_temp[model_sba_all_temp$type== 1,
                     c("vegetation")]<-"PF"
model_sba_all_temp[model_sba_all_temp$type== 2,
                     c("vegetation")]<-"SF_beginning"
model_sba_all_temp[model_sba_all_temp$type== 3,
                     c("vegetation")]<-"SF_intermediate"
model_sba_all_temp[model_sba_all_temp$type== 4,
                     c("vegetation")]<-"SF_advanced"

model_sba_all_temp

# A tibble: 770 × 11
     Ano Tipo  region ff_area idade  Temp  n_obs type  predicted  area
   <dbl> <chr> <chr>  <chr>   <chr> <dbl>  <dbl> <fct>     <dbl> <dbl>
 1  2001 PF    SBA    1-10    <NA>   25.2  27014 1          25.1     1
 2  2001 PF    SBA    10-20   <NA>   25.0  19939 1          24.9     2
 3  2001 PF    SBA    20-30   <NA>   24.8  18555 1          24.8     3
 4  2001 PF    SBA    30-40   <NA>   24.8  20210 1          24.7     4
 5  2001 PF    SBA    40-50   <NA>   24.8  26418 1          24.7     5
 6  2001 PF    SBA    50-60   <NA>   24.8  39804 1          24.8     6
 7  2001 PF    SBA    60-70   <NA>   24.7  42758 1          24.7     7
 8  2001 PF    SBA    70-80   <NA>   24.6  49828 1          24.5     8
 9  2001 PF    SBA    80-90   <NA>   24.5  66479 1          24.4     9
10  2001 PF    SBA    90-100  <NA>   24.3 970261 1          24.1    10
# ℹ 760 more rows
# ℹ 1 more variable: vegetation <chr>
…
