code_climate_forest_regeneration – Climate and forest regeneration
…
# ---- NORMALIDADE ----

# Realizar o teste de normalidade Shapiro-Wilk 
shapiro_test_results_prec <- all_pf_sf_prec %>%
  group_by(Tipo, region, ff_area) %>%
  summarise(
    p_value = shapiro.test(Prec)$p.value
  ) %>%
  ungroup()

# Visualizar os resultados do teste Shapiro-Wilk
print(shapiro_test_results_prec)

# A tibble: 120 × 4
   Tipo  region ff_area p_value
   <chr> <chr>  <chr>     <dbl>
 1 PF    CBA    1-10      0.214
 2 PF    CBA    10-20     0.226
 3 PF    CBA    20-30     0.225
 4 PF    CBA    30-40     0.234
 5 PF    CBA    40-50     0.254
 6 PF    CBA    50-60     0.277
 7 PF    CBA    60-70     0.264
 8 PF    CBA    70-80     0.269
 9 PF    CBA    80-90     0.276
10 PF    CBA    90-100    0.369
# ℹ 110 more rows
…
# ---- NORMALIDADE ----

# Realizar o teste de normalidade Shapiro-Wilk 
shapiro_test_results_evapo <- all_pf_sf_evapo %>%
  group_by(Tipo,region, ff_area) %>%
  summarise(
    p_value = shapiro.test(Evapo)$p.value
  ) %>%
  ungroup()

# Visualizar os resultados do teste Shapiro-Wilk
print(shapiro_test_results_evapo)

# A tibble: 120 × 4
   Tipo  region ff_area p_value
   <chr> <chr>  <chr>     <dbl>
 1 PF    CBA    1-10     0.0391
 2 PF    CBA    10-20    0.142 
 3 PF    CBA    20-30    0.346 
 4 PF    CBA    30-40    0.477 
 5 PF    CBA    40-50    0.600 
 6 PF    CBA    50-60    0.620 
 7 PF    CBA    60-70    0.580 
 8 PF    CBA    70-80    0.520 
 9 PF    CBA    80-90    0.512 
10 PF    CBA    90-100   0.687 
# ℹ 110 more rows
…
# ---- NORMALIDADE ----

# Realizar o teste de normalidade Shapiro-Wilk 
shapiro_test_results_temp <- all_pf_sf_temp %>%
  group_by(Tipo,region, ff_area) %>%
  summarise(
    p_value = shapiro.test(Temp)$p.value
  ) %>%
  ungroup()

# Visualizar os resultados do teste Shapiro-Wilk
print(shapiro_test_results_temp)

# A tibble: 120 × 4
   Tipo  region ff_area p_value
   <chr> <chr>  <chr>     <dbl>
 1 PF    CBA    1-10      0.193
 2 PF    CBA    10-20     0.138
 3 PF    CBA    20-30     0.148
 4 PF    CBA    30-40     0.178
 5 PF    CBA    40-50     0.202
 6 PF    CBA    50-60     0.218
 7 PF    CBA    60-70     0.236
 8 PF    CBA    70-80     0.241
 9 PF    CBA    80-90     0.244
10 PF    CBA    90-100    0.298
# ℹ 110 more rows
…
# EBA
model_EBA_prec_w1 <- lmer(Prec ~ ff_area*Tipo + (1|Ano),
                          data = model_eba_prec)

# SBA
model_SBA_prec_w1 <- lmer(Prec ~ ff_area*Tipo + (1|Ano),
                          data = model_sba_prec)

# Coeficientes fixos
broom.mixed::tidy(model_CBA_prec_w1, effects="fixed")

# A tibble: 40 × 7
   effect term        estimate std.error statistic    df  p.value
   <chr>  <chr>          <dbl>     <dbl>     <dbl> <dbl>    <dbl>
 1 fixed  (Intercept) 2417.         42.6   56.8     20.4 5.62e-24
 2 fixed  ff_area.L     43.2        16.5    2.61   702.  9.12e- 3
 3 fixed  ff_area.Q    -52.3        16.5   -3.17   702.  1.61e- 3
 4 fixed  ff_area.C     -0.422      16.5   -0.0256 702.  9.80e- 1
 5 fixed  ff_area^4    -23.9        16.5   -1.45   702.  1.48e- 1
 6 fixed  ff_area^5    -13.8        16.5   -0.834  702.  4.04e- 1
 7 fixed  ff_area^6     -1.96       16.5   -0.119  702.  9.06e- 1
 8 fixed  ff_area^7      1.05       16.5    0.0633 702.  9.50e- 1
 9 fixed  ff_area^8     -2.42       16.5   -0.146  702.  8.84e- 1
10 fixed  ff_area^9     -1.34       16.5   -0.0814 702.  9.35e- 1
# ℹ 30 more rows

broom.mixed::tidy(model_EBA_prec_w1, effects="fixed")

# A tibble: 40 × 7
   effect term        estimate std.error statistic    df  p.value
   <chr>  <chr>          <dbl>     <dbl>     <dbl> <dbl>    <dbl>
 1 fixed  (Intercept)  2421.        41.6    58.2    20.5 3.16e-24
 2 fixed  ff_area.L    -333.        16.7   -19.9   710.  2.03e-70
 3 fixed  ff_area.Q      97.8       16.7     5.86  710.  7.25e- 9
 4 fixed  ff_area.C     -17.9       16.7    -1.07  710.  2.84e- 1
 5 fixed  ff_area^4     -83.5       16.7    -5.00  710.  7.40e- 7
 6 fixed  ff_area^5     -40.1       16.7    -2.40  710.  1.66e- 2
 7 fixed  ff_area^6      11.5       16.7     0.688 710.  4.91e- 1
 8 fixed  ff_area^7      -5.47      16.7    -0.328 710.  7.43e- 1
 9 fixed  ff_area^8     -12.2       16.7    -0.732 710.  4.64e- 1
10 fixed  ff_area^9      -6.63      16.7    -0.397 710.  6.92e- 1
# ℹ 30 more rows

broom.mixed::tidy(model_SBA_prec_w1, effects="fixed")

# A tibble: 40 × 7
   effect term        estimate std.error statistic    df  p.value
   <chr>  <chr>          <dbl>     <dbl>     <dbl> <dbl>    <dbl>
 1 fixed  (Intercept) 2105.         31.6   66.7     20.4 2.61e-25
 2 fixed  ff_area.L     41.8        10.9    3.82   710.  1.44e- 4
 3 fixed  ff_area.Q     60.2        10.9    5.50   710.  5.20e- 8
 4 fixed  ff_area.C     37.6        10.9    3.44   710.  6.22e- 4
 5 fixed  ff_area^4      9.42       10.9    0.861  710.  3.89e- 1
 6 fixed  ff_area^5      9.75       10.9    0.891  710.  3.73e- 1
 7 fixed  ff_area^6     11.1        10.9    1.02   710.  3.10e- 1
 8 fixed  ff_area^7      6.35       10.9    0.580  710.  5.62e- 1
 9 fixed  ff_area^8     -5.33       10.9   -0.488  710.  6.26e- 1
10 fixed  ff_area^9      0.329      10.9    0.0301 710.  9.76e- 1
# ℹ 30 more rows
…
# EBA
model_EBA_evapo_w1 <- lmer(Evapo ~ ff_area*Tipo + (1|Ano),
                          data = model_eba_evapo)

# SBA
model_SBA_evapo_w1 <- lmer(Evapo ~ ff_area*Tipo + (1|Ano),
                          data = model_sba_evapo)

# Conferir coeficientes fixos rapidamente
broom.mixed::tidy(model_CBA_evapo_w1, effects="fixed")

# A tibble: 40 × 7
   effect term          estimate std.error  statistic    df   p.value
   <chr>  <chr>            <dbl>     <dbl>      <dbl> <dbl>     <dbl>
 1 fixed  (Intercept) 1432.           6.42 223.        21.7 5.27e- 38
 2 fixed  ff_area.L    127.           4.92  25.8      702.  1.51e-103
 3 fixed  ff_area.Q    -47.0          4.92  -9.56     702.  1.88e- 20
 4 fixed  ff_area.C     27.9          4.92   5.68     702.  1.96e-  8
 5 fixed  ff_area^4     -1.26         4.92  -0.255    702.  7.98e-  1
 6 fixed  ff_area^5      4.85         4.92   0.986    702.  3.24e-  1
 7 fixed  ff_area^6      1.42         4.92   0.290    702.  7.72e-  1
 8 fixed  ff_area^7      1.17         4.92   0.238    702.  8.12e-  1
 9 fixed  ff_area^8      0.00189      4.92   0.000385 702.  1.00e+  0
10 fixed  ff_area^9      0.763        4.92   0.155    702.  8.77e-  1
# ℹ 30 more rows

broom.mixed::tidy(model_EBA_evapo_w1, effects="fixed")

# A tibble: 40 × 7
   effect term        estimate std.error statistic    df  p.value
   <chr>  <chr>          <dbl>     <dbl>     <dbl> <dbl>    <dbl>
 1 fixed  (Intercept)  1511.        6.12   247.     21.3 2.83e-38
 2 fixed  ff_area.L      59.5       3.95    15.1   710.  1.19e-44
 3 fixed  ff_area.Q     -36.4       3.95    -9.22  710.  3.38e-19
 4 fixed  ff_area.C      22.0       3.95     5.56  710.  3.84e- 8
 5 fixed  ff_area^4      -5.25      3.95    -1.33  710.  1.84e- 1
 6 fixed  ff_area^5      -3.34      3.95    -0.845 710.  3.98e- 1
 7 fixed  ff_area^6       2.71      3.95     0.686 710.  4.93e- 1
 8 fixed  ff_area^7       2.99      3.95     0.757 710.  4.49e- 1
 9 fixed  ff_area^8      -1.90      3.95    -0.481 710.  6.31e- 1
10 fixed  ff_area^9      -1.71      3.95    -0.432 710.  6.66e- 1
# ℹ 30 more rows

broom.mixed::tidy(model_SBA_evapo_w1, effects="fixed")

# A tibble: 40 × 7
   effect term        estimate std.error statistic    df  p.value
   <chr>  <chr>          <dbl>     <dbl>     <dbl> <dbl>    <dbl>
 1 fixed  (Intercept)  1396.       12.4    113.     20.6 3.45e-30
 2 fixed  ff_area.L      95.3       5.52    17.3   710.  5.20e-56
 3 fixed  ff_area.Q     -10.0       5.52    -1.81  710.  7.01e- 2
 4 fixed  ff_area.C      19.2       5.52     3.48  710.  5.27e- 4
 5 fixed  ff_area^4      -5.46      5.52    -0.988 710.  3.23e- 1
 6 fixed  ff_area^5      -3.44      5.52    -0.623 710.  5.34e- 1
 7 fixed  ff_area^6       5.12      5.52     0.928 710.  3.54e- 1
 8 fixed  ff_area^7       3.93      5.52     0.712 710.  4.77e- 1
 9 fixed  ff_area^8      -3.54      5.52    -0.641 710.  5.21e- 1
10 fixed  ff_area^9      -2.38      5.52    -0.432 710.  6.66e- 1
# ℹ 30 more rows
…
# EBA
model_EBA_temp_w1 <- lmer(Temp ~ ff_area*Tipo + (1|Ano),
                          data = model_eba_temp)

# SBA
model_SBA_temp_w1 <- lmer(Temp ~ ff_area*Tipo + (1|Ano),
                          data = model_sba_temp)

# Conferir coeficientes fixos rapidamente
broom.mixed::tidy(model_CBA_temp_w1, effects="fixed")

# A tibble: 40 × 7
   effect term        estimate std.error statistic    df   p.value
   <chr>  <chr>          <dbl>     <dbl>     <dbl> <dbl>     <dbl>
 1 fixed  (Intercept) 25.5        0.0722   354.     20.5 2.66e- 40
 2 fixed  ff_area.L   -0.873      0.0300   -29.1   702.  1.46e-122
 3 fixed  ff_area.Q   -0.0319     0.0300    -1.06  702.  2.88e-  1
 4 fixed  ff_area.C   -0.262      0.0300    -8.74  702.  1.76e- 17
 5 fixed  ff_area^4   -0.0743     0.0300    -2.47  702.  1.36e-  2
 6 fixed  ff_area^5   -0.0685     0.0300    -2.28  702.  2.29e-  2
 7 fixed  ff_area^6   -0.0457     0.0300    -1.52  702.  1.29e-  1
 8 fixed  ff_area^7   -0.0278     0.0300    -0.925 702.  3.55e-  1
 9 fixed  ff_area^8   -0.00608    0.0300    -0.203 702.  8.40e-  1
10 fixed  ff_area^9    0.00859    0.0300     0.286 702.  7.75e-  1
# ℹ 30 more rows

broom.mixed::tidy(model_EBA_temp_w1, effects="fixed")

# A tibble: 40 × 7
   effect term        estimate std.error statistic    df   p.value
   <chr>  <chr>          <dbl>     <dbl>     <dbl> <dbl>     <dbl>
 1 fixed  (Intercept) 25.2        0.0706   357.     20.1 8.94e- 40
 2 fixed  ff_area.L   -0.734      0.0162   -45.3   710.  1.58e-211
 3 fixed  ff_area.Q   -0.336      0.0162   -20.7   710.  4.40e- 75
 4 fixed  ff_area.C   -0.323      0.0162   -19.9   710.  1.47e- 70
 5 fixed  ff_area^4   -0.0201     0.0162    -1.24  710.  2.16e-  1
 6 fixed  ff_area^5   -0.0519     0.0162    -3.20  710.  1.45e-  3
 7 fixed  ff_area^6   -0.0742     0.0162    -4.58  710.  5.60e-  6
 8 fixed  ff_area^7   -0.0338     0.0162    -2.08  710.  3.75e-  2
 9 fixed  ff_area^8    0.0179     0.0162     1.10  710.  2.71e-  1
10 fixed  ff_area^9    0.00798    0.0162     0.492 710.  6.23e-  1
# ℹ 30 more rows

broom.mixed::tidy(model_SBA_temp_w1, effects="fixed")

# A tibble: 40 × 7
   effect term        estimate std.error statistic    df  p.value
   <chr>  <chr>          <dbl>     <dbl>     <dbl> <dbl>    <dbl>
 1 fixed  (Intercept) 25.1        0.0807   311.     20.2 1.28e-38
 2 fixed  ff_area.L   -0.427      0.0204   -20.9   710.  8.22e-76
 3 fixed  ff_area.Q   -0.300      0.0204   -14.7   710.  1.17e-42
 4 fixed  ff_area.C   -0.289      0.0204   -14.1   710.  4.28e-40
 5 fixed  ff_area^4    0.00969    0.0204     0.474 710.  6.36e- 1
 6 fixed  ff_area^5    0.0254     0.0204     1.24  710.  2.15e- 1
 7 fixed  ff_area^6   -0.0931     0.0204    -4.55  710.  6.17e- 6
 8 fixed  ff_area^7   -0.0538     0.0204    -2.63  710.  8.67e- 3
 9 fixed  ff_area^8    0.0369     0.0204     1.81  710.  7.13e- 2
10 fixed  ff_area^9    0.0209     0.0204     1.02  710.  3.07e- 1
# ℹ 30 more rows
…
